All the ggplots
…
ymoncatch <- vanfilt %>% 
  group_by(Month, Year) %>% 
  summarise(catch=mean(catch_kg), 
            catchsd=sd(catch_kg), 
            maxn=max(catch_n)) %>%
  filter(Year %in% 2015:2017)
unique(ymoncatch$Year)

## [1] 2016 2017 2015

ymoncatch

## # A tibble: 30 x 5
## # Groups:   Month [12]
##    Month  Year  catch catchsd  maxn
##    <dbl> <dbl>  <dbl>   <dbl> <dbl>
##  1    1. 2016. 300.     NaN     50.
##  2    1. 2017.  23.2     11.5   13.
##  3    2. 2015.  15.0    NaN      7.
##  4    2. 2016. 146.      81.1   55.
##  5    2. 2017.   7.84    11.9   22.
##  6    3. 2016.  62.6     73.7   50.
##  7    3. 2017.  31.0     28.2   18.
##  8    4. 2015.  35.0     15.6   24.
##  9    4. 2016.  78.3    103.   100.
## 10    4. 2017.  20.7     18.1   19.
## # ... with 20 more rows
…
